Title: 联系我们

----

Text: 媒体与商务合作 
邮箱：hezuo@115.com 
地址：广东省东莞市松山湖科技产业园区松科苑17号楼 
邮编：523808
自2012年加入知乎，一直以來我都是一个「冷眼旁观」的人。我目睹过很多诸如引号的争论、大号的退出、侵权维权等大事件，而此前做得最多就是阅读，阅读完我通常会收起或者点赞，顶多就是到点赞为止了。

----

Map: 113.269131,23.138394

----

Showimage: 

----

Showmap: 1

----

Bg: 4.jpg

----

Img: 3.jpg

----

Bgcolor: #000000